%YAML 1.1
%TAG !u! tag:unity3d.com,2011:
--- !u!21 &2100000
Material:
  serializedVersion: 6
  m_ObjectHideFlags: 0
  m_PrefabParentObject: {fileID: 0}
  m_PrefabInternal: {fileID: 0}
  m_Name: GlassRefractive
  m_Shader: {fileID: 4800000, guid: 963484209d11fd7f110076aa44295342, type: 3}
  m_ShaderKeywords: 
  m_LightmapFlags: 5
  m_CustomRenderQueue: -1
  stringTagMap: {}
  m_SavedProperties:
    serializedVersion: 2
    m_TexEnvs:
    - first:
        name: _BumpMap
      second:
        m_Texture: {fileID: 2800000, guid: 4b8d081e9d114c7f1100f5ab44295342, type: 3}
        m_Scale: {x: 1, y: 1}
        m_Offset: {x: 0, y: 0}
    - first:
        name: _MainTex
      second:
        m_Texture: {fileID: 2800000, guid: 19555d7d9d114c7f1100f5ab44295342, type: 3}
        m_Scale: {x: 1, y: 1}
        m_Offset: {x: 0, y: 0}
    m_Floats:
    - first:
        name: _BumpAmt
      second: 53.5
    - first:
        name: _Shininess
      second: 1
    m_Colors:
    - first:
        name: _Color
      second: {r: 0.4233921, g: 0.4233921, b: 0.4233921, a: 0}
    - first:
        name: _SpecColor
      second: {r: 0.9819277, g: 0.96385545, b: 1, a: 1}
--- !u!1002 &2100001
EditorExtensionImpl:
  serializedVersion: 6
